<?xml version="1.0"?>
<svg xmlns="http://www.w3.org/2000/svg" xmlns:xlink="http://www.w3.org/1999/xlink" version="1.1" id="Capa_1" x="0px" y="0px" width="512px" height="512px" viewBox="0 0 459 459" style="enable-background:new 0 0 459 459;" xml:space="preserve" class=""><g transform="matrix(1 2.44929e-16 2.44929e-16 -1 -1.13687e-13 459)"><g>
	<g id="sort">
		<path d="M0,382.5h153v-51H0V382.5z M0,76.5v51h459v-51H0z M0,255h306v-51H0V255z" data-original="#000000" class="active-path" data-old_color="#000000" fill="#FDCB36"/>
	</g>
</g></g> </svg>
